clichain.cli: INFO: create: _parse
clichain.cli: INFO: create: gen_nmea
clichain.cli: INFO: creating pipeline...
aistool.tasks.gen_nmea.0: INFO: starting
aistool.tasks.gen_nmea.0: INFO: use "date" field to add timestamp if no timestamp
clichain.cli: INFO: processing...
clichain.cli: INFO: ----------------------------------------
!ABVDM,,1,1,,A,B4cmI600;gdwlt40QT<m7wQ5oP06,0*30,1483840800
!ABVDM,,1,1,,A,34hT4<50000<590F`tVKGWB20Dtb,0*66,1483844400
!ABVDM,,1,1,,A,13ccFM7P0TQ9oP>Gmw1iN?v420Ra,0*49,1483913042
!ABVDM,,1,1,8,A,33cdBs100015`WhECHf2q81n0000,0*75,1483912802
!ABVDM,,1,1,3,B,181:JB002P13srFFqtsu9JV02<0T,0*0A,1483912802
!ABVDM,,1,1,3,B,181:JB002P13srFFqtsu9JV02<0T,0*0A
!AIVDM,,2,1,5,B,53coG882<d>`T=E>2208tp58T6222222222222153jp@@5v`N@PhAk2@DRH8,0*1D,1483913801
!AIVDM,,2,2,5,B,88888888880,2*22,1483913801
!ABVDM,,2,1,1,B,55SesR42?fv?<HU;N20@tpN060lE@U>2222222165bJ@@0E:0Hi1@TUgS@E3,0*71,1483913921
!ABVDM,,2,2,1,B,Qp888888880,2*0C,1483912801
!ABVDM,,2,1,1,B,55SesR42?fv?<HU;N20@tpN060lE@U>2222222165bJ@@0E:0Hi1@TUgS@E3,0*71,1483912801
!ABVDM,,2,2,1,B,Qp888888880,2*0C,1483912801
!ABVDM,,2,1,1,B,55SesR42?fv?<HU;N20@tpN060lE@U>2222222165bJ@@0E:0Hi1@TUgS@E3,0*71
!ABVDM,,2,2,1,B,Qp888888880,2*0C,1483912801
!ABVDM,,2,1,1,B,55SesR42?fv?<HU;N20@tpN060lE@U>2222222165bJ@@0E:0Hi1@TUgS@E3,0*71
!ABVDM,,2,2,1,B,Qp888888880,2*0C
aistool.tasks.gen_nmea.0: INFO: Done.
clichain.cli: INFO: ----------------------------------------
clichain.cli: INFO: DONE.
