{'id': 1, 'repeat_indicator': 0, 'mmsi': 319018000, 'nav_status': 0, 'rot_over_range': False, 'rot': 0.0, 'sog': 13.800000190734863, 'position_accuracy': 1, 'x': 12.640633333333334, 'y': 40.72388333333333, 'cog': 281.70001220703125, 'true_heading': 282, 'timestamp': 56, 'special_manoeuvre': 0, 'spare': 0, 'raim': False, 'sync_state': 0, 'slot_timeout': 3, 'received_stations': 88}
{'id': 18, 'repeat_indicator': 0, 'mmsi': 227118790, 'spare': 0, 'sog': 0.0, 'position_accuracy': 0, 'x': 8.759221666666667, 'y': 42.56632833333333, 'cog': 183.89999389648438, 'true_heading': 511, 'timestamp': 59, 'spare2': 0, 'unit_flag': 1, 'display_flag': 0, 'dsc_flag': 1, 'band_flag': 1, 'm22_flag': 1, 'mode_flag': 0, 'raim': True, 'commstate_flag': 1, 'commstate_cs_fill': 393222}
{'id': 21, 'repeat_indicator': 1, 'mmsi': 992242171, 'spare': 0, 'aton_type': 5, 'name': 'FARO DE CABO CREUS@@', 'position_accuracy': 1, 'x': 3.3158666666666665, 'y': 42.318933333333334, 'dim_a': 0, 'dim_b': 0, 'dim_c': 0, 'dim_d': 0, 'fix_type': 7, 'timestamp': 0, 'off_pos': False, 'aton_status': 0, 'raim': True, 'virtual_aton': False, 'assigned_mode': True}
{'id': 21, 'repeat_indicator': 1, 'mmsi': 992242172, 'spare': 0, 'aton_type': 5, 'name': 'FARO PUNTA SERNELLA@', 'position_accuracy': 1, 'x': 3.1870333333333334, 'y': 42.351405, 'dim_a': 0, 'dim_b': 0, 'dim_c': 0, 'dim_d': 0, 'fix_type': 7, 'timestamp': 0, 'off_pos': False, 'aton_status': 0, 'raim': True, 'virtual_aton': False, 'assigned_mode': True}
{'id': 24, 'repeat_indicator': 0, 'mmsi': 227373470, 'part_num': 1, 'type_and_cargo': 36, 'vendor_id': 'AMC@@@@', 'callsign': 'FAD2407', 'dim_a': 0, 'dim_b': 0, 'dim_c': 0, 'dim_d': 0, 'spare': 0}
{'id': 5, 'repeat_indicator': 0, 'mmsi': 227393830, 'ais_version': 0, 'imo_num': 8111922, 'callsign': 'FAD4411', 'name': 'TSM HANS            ', 'type_and_cargo': 52, 'dim_a': 5, 'dim_b': 19, 'dim_c': 6, 'dim_d': 3, 'fix_type': 1, 'eta_month': 10, 'eta_day': 24, 'eta_hour': 14, 'eta_minute': 0, 'draught': 4.199999809265137, 'destination': 'SETE                ', 'dte': 0, 'spare': 0}
{'id': 21, 'repeat_indicator': 1, 'mmsi': 992476133, 'spare': 0, 'aton_type': 1, 'name': '14^ MRSC PESCARA@@@@', 'position_accuracy': 0, 'x': 14.2183, 'y': 42.4634, 'dim_a': 0, 'dim_b': 0, 'dim_c': 0, 'dim_d': 0, 'fix_type': 0, 'timestamp': 60, 'off_pos': False, 'aton_status': 0, 'raim': False, 'virtual_aton': True, 'assigned_mode': False}
{'id': 21, 'repeat_indicator': 1, 'mmsi': 992476133, 'spare': 0, 'aton_type': 1, 'name': '14^ MRSC PESCARA@@@@', 'position_accuracy': 0, 'x': 14.2183, 'y': 42.4634, 'dim_a': 0, 'dim_b': 0, 'dim_c': 0, 'dim_d': 0, 'fix_type': 0, 'timestamp': 60, 'off_pos': False, 'aton_status': 0, 'raim': False, 'virtual_aton': True, 'assigned_mode': False}
{'id': 5, 'repeat_indicator': 0, 'mmsi': 375199000, 'ais_version': 0, 'imo_num': 0, 'callsign': 'JY3726@', 'name': 'EOL B@@@@@@@@@@@@@@@', 'type_and_cargo': 37, 'dim_a': 24, 'dim_b': 10, 'dim_c': 7, 'dim_d': 1, 'fix_type': 1, 'eta_month': 0, 'eta_day': 0, 'eta_hour': 24, 'eta_minute': 60, 'draught': 1.2999999523162842, 'destination': 'ELBE@@@@@@@@@@@@@@@@', 'dte': 0, 'spare': 0}
{'id': 21, 'repeat_indicator': 1, 'mmsi': 992476133, 'spare': 0, 'aton_type': 1, 'name': '14^ MRSC PESCARA@@@@', 'position_accuracy': 0, 'x': 14.2183, 'y': 42.4634, 'dim_a': 0, 'dim_b': 0, 'dim_c': 0, 'dim_d': 0, 'fix_type': 0, 'timestamp': 60, 'off_pos': False, 'aton_status': 0, 'raim': False, 'virtual_aton': True, 'assigned_mode': False}
{'id': 1, 'repeat_indicator': 0, 'mmsi': 310610000, 'nav_status': 0, 'rot_over_range': False, 'rot': 0.0, 'sog': 19.100000381469727, 'position_accuracy': 1, 'x': 10.329571666666666, 'y': 42.55013, 'cog': 307.70001220703125, 'true_heading': 308, 'timestamp': 0, 'special_manoeuvre': 0, 'spare': 0, 'raim': False, 'sync_state': 0, 'slot_timeout': 1, 'utc_hour': 22, 'utc_min': 0, 'utc_spare': 0}
{'id': 21, 'repeat_indicator': 1, 'mmsi': 992476133, 'spare': 0, 'aton_type': 1, 'name': '14^ MRSC PESCARA@@@@', 'position_accuracy': 0, 'x': 14.2183, 'y': 42.4634, 'dim_a': 0, 'dim_b': 0, 'dim_c': 0, 'dim_d': 0, 'fix_type': 0, 'timestamp': 60, 'off_pos': False, 'aton_status': 0, 'raim': False, 'virtual_aton': True, 'assigned_mode': False}
{'id': 21, 'repeat_indicator': 1, 'mmsi': 992476130, 'spare': 0, 'aton_type': 1, 'name': '4^ MRSC NAPLES@@@@@@', 'position_accuracy': 0, 'x': 14.2637, 'y': 40.8431, 'dim_a': 0, 'dim_b': 0, 'dim_c': 0, 'dim_d': 0, 'fix_type': 0, 'timestamp': 60, 'off_pos': False, 'aton_status': 0, 'raim': False, 'virtual_aton': True, 'assigned_mode': False}
{'id': 21, 'repeat_indicator': 1, 'mmsi': 992476130, 'spare': 0, 'aton_type': 1, 'name': '4^ MRSC NAPLES@@@@@@', 'position_accuracy': 0, 'x': 14.2637, 'y': 40.8431, 'dim_a': 0, 'dim_b': 0, 'dim_c': 0, 'dim_d': 0, 'fix_type': 0, 'timestamp': 60, 'off_pos': False, 'aton_status': 0, 'raim': False, 'virtual_aton': True, 'assigned_mode': False}
{'id': 5, 'repeat_indicator': 0, 'mmsi': 247322400, 'ais_version': 2, 'imo_num': 9220330, 'callsign': 'ICUS   ', 'name': 'BONARIA             ', 'type_and_cargo': 69, 'dim_a': 30, 'dim_b': 184, 'dim_c': 16, 'dim_d': 16, 'fix_type': 1, 'eta_month': 7, 'eta_day': 29, 'eta_hour': 8, 'eta_minute': 30, 'draught': 6.599999904632568, 'destination': 'CAGLIARI            ', 'dte': 0, 'spare': 0}
{'id': 21, 'repeat_indicator': 1, 'mmsi': 992476130, 'spare': 0, 'aton_type': 1, 'name': '4^ MRSC NAPLES@@@@@@', 'position_accuracy': 0, 'x': 14.2637, 'y': 40.8431, 'dim_a': 0, 'dim_b': 0, 'dim_c': 0, 'dim_d': 0, 'fix_type': 0, 'timestamp': 60, 'off_pos': False, 'aton_status': 0, 'raim': False, 'virtual_aton': True, 'assigned_mode': False}
{'id': 21, 'repeat_indicator': 1, 'mmsi': 992476130, 'spare': 0, 'aton_type': 1, 'name': '4^ MRSC NAPLES@@@@@@', 'position_accuracy': 0, 'x': 14.2637, 'y': 40.8431, 'dim_a': 0, 'dim_b': 0, 'dim_c': 0, 'dim_d': 0, 'fix_type': 0, 'timestamp': 60, 'off_pos': False, 'aton_status': 0, 'raim': False, 'virtual_aton': True, 'assigned_mode': False}
